…
There may be some days that's not a record for 24 hours, which means fewer than 24\*60 = 1440 minutes.


```r
# check if there any day that's < 1440 mins
clean_df %>% 
    group_by(ID, date) %>%
    count() %>%
    filter(n < 1440)
```

```
## # A tibble: 73 × 3
## # Groups:   ID, date [73]
##       ID date           n
##    <dbl> <date>     <int>
##  1     1 2003-05-07   720
##  2     2 2003-05-07   540
##  3     2 2003-06-03   946
##  4     3 2003-06-03   948
##  5     4 2003-06-03   721
##  6     5 2003-06-12   810
##  7     6 2003-08-19   720
##  8     7 2004-05-04   840
##  9     7 2004-05-19  1175
## 10     8 2004-05-06   840
## # ℹ 63 more rows
```
…
feature_df
```

```
## # A tibble: 792 × 13
##    mean_act sd_act zero_prop cv_act skew_act kurtosi_act q99_act q95_act q75_act
##       <dbl>  <dbl>     <dbl>  <dbl>    <dbl>       <dbl>   <dbl>   <dbl>   <dbl>
##  1     2.93   2.65     0.409  0.905 -0.00188       -1.74    6.79    6.44    5.53
##  2     2.59   2.58     0.462  0.995  0.180         -1.68    6.86    6.38    5.15
##  3     2.91   2.50     0.374  0.857 -0.0398        -1.60    7.00    6.38    5.22
##  4     2.56   2.41     0.420  0.942  0.147         -1.59    6.63    6.15    4.91
##  5     3.31   2.93     0.394  0.885 -0.0148        -1.69    7.63    7.23    6.22
##  6     2.48   2.50     0.465  1.01   0.232         -1.63    6.78    6.15    5.00
##  7     2.95   2.61     0.397  0.884 -0.0209        -1.67    7.08    6.50    5.43
##  8     2.97   2.67     0.4    0.896  0.00146       -1.70    7.04    6.63    5.53
##  9     3.29   2.62     0.342  0.795 -0.211         -1.60    7.06    6.63    5.67
## 10     2.94   2.67     0.408  0.910  0.0523        -1.66    7.10    6.73    5.53
## # ℹ 782 more rows
## # ℹ 4 more variables: q25_act <dbl>, med_act <dbl>, cross_medpoint <int>,
## #   group <fct>
```
…
